4.2 Analyzing viral protein sequences | DLL 2021, R section
…
4.2.7.2 More tidyverse demo

tidyverse is pretty neat at doing these things in simpler, more readable
code. Here’s how you might approach the motif-finding task in that paradigm:

1st - list files, but set it in a tibble:

tibble(
    filenames=list.files(path="data/viral_structural_proteins",
        full.names=T, pattern=".*tsv") 
    )

## # A tibble: 243 x 1
##    filenames                                            
##    <chr>                                                
##  1 data/viral_structural_proteins/viral_proteins_000.tsv
##  2 data/viral_structural_proteins/viral_proteins_001.tsv
##  3 data/viral_structural_proteins/viral_proteins_002.tsv
##  4 data/viral_structural_proteins/viral_proteins_003.tsv
##  5 data/viral_structural_proteins/viral_proteins_004.tsv
##  6 data/viral_structural_proteins/viral_proteins_005.tsv
##  7 data/viral_structural_proteins/viral_proteins_006.tsv
##  8 data/viral_structural_proteins/viral_proteins_007.tsv
##  9 data/viral_structural_proteins/viral_proteins_008.tsv
## 10 data/viral_structural_proteins/viral_proteins_009.tsv
## # … with 233 more rows

2nd - pipe that into a mutate call, where you use map on filenames.

map is like lapply. It takes whatever you have on the left, and puts
it one by one into the function on the right, along with optional arguments
that you list after it. Here, we set col_names to false,
analogous to header in read.delim.

tibble(
    filenames=list.files(path="data/viral_structural_proteins",
        full.names=T, pattern=".*tsv") 
    ) %>%
    mutate(rawfiles=map(filenames,read_tsv,col_names=F)) 

## # A tibble: 243 x 2
##    filenames                                             rawfiles        
##    <chr>                                                 <list>          
##  1 data/viral_structural_proteins/viral_proteins_000.tsv <tibble [1 × 3]>
##  2 data/viral_structural_proteins/viral_proteins_001.tsv <tibble [1 × 3]>
##  3 data/viral_structural_proteins/viral_proteins_002.tsv <tibble [1 × 3]>
##  4 data/viral_structural_proteins/viral_proteins_003.tsv <tibble [1 × 3]>
##  5 data/viral_structural_proteins/viral_proteins_004.tsv <tibble [1 × 3]>
##  6 data/viral_structural_proteins/viral_proteins_005.tsv <tibble [1 × 3]>
##  7 data/viral_structural_proteins/viral_proteins_006.tsv <tibble [1 × 3]>
##  8 data/viral_structural_proteins/viral_proteins_007.tsv <tibble [1 × 3]>
##  9 data/viral_structural_proteins/viral_proteins_008.tsv <tibble [1 × 3]>
## 10 data/viral_structural_proteins/viral_proteins_009.tsv <tibble [1 × 3]>
## # … with 233 more rows
…
Then we can process on datar. Note the use of mutate, map, and
wrapping map in unlist to just return the lengths instead of a list of
lengths.

datar %>%
    mutate(
        protein_length=unlist(map(X3,nchar)),
        qq_present=unlist(map(X3,grepl,pattern="QQ")),
    )

## # A tibble: 243 x 6
##    filenames       X1         X2         X3            protein_length qq_present
##    <chr>           <chr>      <chr>      <chr>                  <int> <lgl>     
##  1 data/viral_str… Q8JUX5.3 … Chikungun… MEFIPTQTFYNR…           1248 TRUE      
##  2 data/viral_str… YP_009507… Everglade… MFPFQPMYPMQP…           1254 TRUE      
##  3 data/viral_str… NP_042704… African s… MFNIKMTISTLL…            177 TRUE      
##  4 data/viral_str… NP_042736… African s… MEAVLTKLDQEE…            137 FALSE     
##  5 data/viral_str… P27413.1 … Rabbit he… MAFLMSEFIGLG…            117 FALSE     
##  6 data/viral_str… NP_042800… African s… MDTETSPLLSHN…            117 TRUE      
##  7 data/viral_str… NP_050192… Human bet… MDLKAQSIPFAW…            858 FALSE     
##  8 data/viral_str… Q306W5.1 … Eastern e… MFPYPTLNYSPM…           1242 FALSE     
##  9 data/viral_str… NP_040824… Venezuela… MFPFQPMYPMQP…           1255 TRUE      
## 10 data/viral_str… YP_003987… Acanthamo… MNYSLEDLPNSG…            234 FALSE     
## # … with 233 more rows
…
